<?xml version="1.0" encoding="utf-8"?>
<!-- Generator: Adobe Illustrator 22.1.0, SVG Export Plug-In . SVG Version: 6.00 Build 0)  -->
<svg version="1.1" id="layer_1" xmlns="http://www.w3.org/2000/svg" xmlns:xlink="http://www.w3.org/1999/xlink" x="0px" y="0px"
	 viewBox="0 0 48 37.8" enable-background="new 0 0 48 37.8" xml:space="preserve">
<g>
	<path d="M13.8,33H0.7C0.3,33,0,33.4,0,33.8c0,0.4,0.3,0.7,0.7,0.7h13.1c0.4,0,0.7-0.3,0.7-0.7
		C14.5,33.4,14.2,33,13.8,33z"/>
	<path d="M12.2,20.2h4.8c0.4,0,0.7-0.3,0.7-0.7c0-0.4-0.3-0.7-0.7-0.7h-4.8c-2.5,0-4.5-2-4.5-4.5
		c0-2.5,2-4.5,4.5-4.5h0.8c0.4,0,0.7-0.3,0.7-0.7c0-0.4-0.3-0.7-0.7-0.7h-0.8c-3.3,0-6,2.7-6,6C6.2,17.5,8.9,20.2,12.2,20.2z"/>
	<path d="M31.9,25.6c0,0,0-0.1-0.1-0.1c0,0,0,0,0-0.1c0,0,0-0.1-0.1-0.1c0,0,0,0-0.1-0.1c0,0,0,0,0,0c0,0,0,0-0.1,0
		c0,0,0,0,0,0L26.7,23c2.5-3.5,6.2-9.6,6.2-14.1C32.9,4,28.9,0,24,0c-4.9,0-8.9,4-8.9,8.9c0,4.5,3.7,10.6,6.2,14.1l-4.8,2.2
		c0,0,0,0,0,0c0,0,0,0-0.1,0c0,0,0,0,0,0c0,0,0,0-0.1,0.1c0,0-0.1,0.1-0.1,0.1c0,0,0,0,0,0.1c0,0,0,0.1-0.1,0.1c0,0,0,0,0,0.1
		c0,0.1,0,0.1,0,0.2v7.9c0,0.3,0.2,0.5,0.4,0.7l7.3,3.3c0,0,0,0,0,0c0.1,0,0.2,0.1,0.3,0.1c0.1,0,0.2,0,0.3-0.1c0,0,0,0,0,0l7.3-3.3
		c0.3-0.1,0.4-0.4,0.4-0.7v-7.9C32,25.8,32,25.7,31.9,25.6C32,25.6,32,25.6,31.9,25.6z M16.6,8.9c0-4.1,3.3-7.4,7.4-7.4
		c4.1,0,7.4,3.3,7.4,7.4c0,5.2-5.6,13-7.4,15.4C22.2,21.9,16.6,14.1,16.6,8.9z M23.3,36l-5.8-2.7V27l0.9,0.4l5,2.3V36z M24,28.4
		l-5.5-2.5l3.6-1.7c0.7,1,1.2,1.6,1.3,1.7c0.1,0.2,0.3,0.3,0.6,0.3c0.2,0,0.4-0.1,0.6-0.3c0.1-0.1,0.6-0.7,1.3-1.7l3.6,1.7L24,28.4z
		 M30.5,33.3L24.7,36v-6.3l2.3-1.1l3.5-1.6V33.3z"/>
	<path d="M28.5,9c0-2.5-2-4.5-4.5-4.5c-2.5,0-4.5,2-4.5,4.5c0,2.5,2,4.5,4.5,4.5C26.5,13.5,28.5,11.4,28.5,9z M21,9
		c0-1.7,1.4-3,3-3c1.7,0,3,1.4,3,3s-1.4,3-3,3C22.3,12,21,10.6,21,9z"/>
	<path d="M40.1,18.7h-9c-0.4,0-0.7,0.3-0.7,0.7c0,0.4,0.3,0.7,0.7,0.7h9c3.5,0,6.4,2.9,6.4,6.4
		c0,3.5-2.9,6.4-6.4,6.4h-5.9c-0.4,0-0.7,0.3-0.7,0.7c0,0.4,0.3,0.7,0.7,0.7h5.9c4.3,0,7.9-3.5,7.9-7.9C48,22.3,44.5,18.7,40.1,18.7
		z"/>
	<path d="M35.1,9.7l3.5,0l2.5,2.6c0.1,0.1,0.3,0.2,0.5,0.2c0,0,0,0,0,0c0.2,0,0.4-0.1,0.5-0.2l5.6-6.3
		c0.3-0.3,0.2-0.8-0.1-1c-0.3-0.3-0.8-0.2-1,0.1l-5.1,5.8l-2.2-2.3c0,0,0,0,0,0c-0.1-0.1-0.1-0.1-0.2-0.2c-0.1,0-0.2-0.1-0.3-0.1
		c0,0,0,0,0,0l-3.8,0h0c-0.4,0-0.7,0.3-0.7,0.7C34.3,9.4,34.7,9.7,35.1,9.7z"/>
</g>
</svg>
