<?xml version="1.0" encoding="utf-8"?>
<!-- Generator: Adobe Illustrator 22.1.0, SVG Export Plug-In . SVG Version: 6.00 Build 0)  -->
<svg version="1.1" id="layer_1" xmlns="http://www.w3.org/2000/svg" xmlns:xlink="http://www.w3.org/1999/xlink" x="0px" y="0px"
	 viewBox="0 0 48 48" enable-background="new 0 0 48 48" xml:space="preserve">
<g>
	<path d="M35.3,43.5c-3.4,2-7.3,3-11.3,3C11.6,46.5,1.5,36.4,1.5,24c0-6.9,3.2-13.5,8.6-17.7l1.1,1.8L14,3L8.2,3.2
		L9.3,5C3.5,9.6,0,16.6,0,24c0,13.2,10.8,24,24,24c4.2,0,8.4-1.1,12-3.2c0.3-0.2,0.5-0.6,0.3-1C36.1,43.4,35.6,43.3,35.3,43.5z"/>
	<path d="M24,0c-0.4,0-0.7,0.3-0.7,0.7c0,0.4,0.3,0.7,0.7,0.7c12.4,0,22.5,10.1,22.5,22.5c0,3.1-0.6,6-1.8,8.8
		c-0.2,0.4,0,0.8,0.4,1c0.1,0,0.2,0.1,0.3,0.1c0.3,0,0.6-0.2,0.7-0.4c1.3-3,1.9-6.1,1.9-9.4C48,10.8,37.2,0,24,0z"/>
	<path d="M42.8,18C42.8,17.9,42.8,17.9,42.8,18c-0.1-0.1-0.1-0.2-0.1-0.2c0,0,0,0-0.1-0.1c0,0,0,0,0,0l-8-6.3
		c-0.1-0.1-0.3-0.2-0.4-0.2h-8.7h-6.3H9.6c0,0,0,0-0.1,0c0,0-0.1,0-0.1,0c0,0-0.1,0-0.1,0c0,0,0,0-0.1,0c0,0,0,0-0.1,0
		c0,0-0.1,0-0.1,0.1c0,0-0.1,0.1-0.1,0.1c0,0,0,0-0.1,0.1c0,0,0,0.1-0.1,0.1c0,0,0,0,0,0.1c0,0,0,0,0,0c0,0.1,0,0.1,0,0.2
		c0,0,0,0,0,0.1c0,0,0,0,0,0v22.7c0,0.2,0.1,0.4,0.3,0.6l8,6.3c0,0,0.1,0,0.1,0.1c0,0,0.1,0,0.1,0c0.1,0,0.2,0.1,0.3,0.1h24.5
		c0.4,0,0.7-0.3,0.7-0.7V18.2c0,0,0,0,0,0C42.8,18.1,42.8,18,42.8,18z M40,17.5h-6.4l-6.1-4.8h6.4L40,17.5z M27.8,18.9h4.9v6.8h-4.9
		V18.9z M25.1,12.7l6.1,4.8h-4l-6.1-4.8H25.1z M18.8,12.7l6.1,4.8h-7.1l-6.1-4.8H18.8z M10.4,13.4l6.5,5.1v20.9l-6.5-5.1V13.4z
		 M18.4,18.9h8v7.5c0,0.4,0.3,0.7,0.7,0.7h6.3c0.4,0,0.7-0.3,0.7-0.7v-7.5h7.3v21.3h-23V18.9z"/>
</g>
</svg>
