<?xml version="1.0" encoding="utf-8"?>
<!-- Generator: Adobe Illustrator 22.1.0, SVG Export Plug-In . SVG Version: 6.00 Build 0)  -->
<svg version="1.1" baseProfile="basic" id="Слой_1"
	 xmlns="http://www.w3.org/2000/svg" xmlns:xlink="http://www.w3.org/1999/xlink" x="0px" y="0px" viewBox="0 0 509.8 236.7"
	 xml:space="preserve">
<style type="text/css">
	.st0{fill:url(#SVGID_1_);}
	.st1{fill:url(#SVGID_2_);}
	.st2{fill:url(#SVGID_3_);}
	.st3{fill:url(#SVGID_4_);}
	.st4{fill:url(#SVGID_5_);}
	.st5{fill:url(#SVGID_6_);}
	.st6{fill:url(#SVGID_7_);}
	.st7{fill:url(#SVGID_8_);}
	.st8{fill:#9DC2CF;}
</style>
<g>
	<g>
		
			<linearGradient id="SVGID_1_" gradientUnits="userSpaceOnUse" x1="45.7448" y1="-1439.7172" x2="67.7448" y2="-1579.7172" gradientTransform="matrix(1 0 0 1 0 1578)">
			<stop  offset="0" style="stop-color:#2C54A3"/>
			<stop  offset="1" style="stop-color:#40D1E6"/>
		</linearGradient>
		<path class="st0" d="M38.4,118.3V48.9l0,0c5.1-0.9,10.4-1.3,15.8-1.3c5.4,0,10.7,0.4,15.8,1.3l0,0v69.9c0,9-7.5,16.3-16.6,15.8
			C44.9,134.3,38.4,126.9,38.4,118.3z"/>
		
			<linearGradient id="SVGID_2_" gradientUnits="userSpaceOnUse" x1="47.2859" y1="-1439.4751" x2="69.2859" y2="-1579.4751" gradientTransform="matrix(1 0 0 1 0 1578)">
			<stop  offset="0" style="stop-color:#2C54A3"/>
			<stop  offset="1" style="stop-color:#40D1E6"/>
		</linearGradient>
		<path class="st1" d="M0,117.9V64.6l0,0c6.3-4.4,13.2-8,20.5-10.8h0.1v64.3c0,19.7,16.1,35.6,35.8,34.4C74,151.4,88,136.7,88,118.9
			V53.8c0,0,0-0.1,0.1,0c7.3,2.8,14.2,6.4,20.5,10.8l0,0v54.3c0,29-22.8,52.7-51.4,54.2C25.9,174.7,0,149.1,0,117.9z"/>
	</g>
	<g>
		
			<linearGradient id="SVGID_3_" gradientUnits="userSpaceOnUse" x1="183.2516" y1="-1418.109" x2="205.2516" y2="-1558.109" gradientTransform="matrix(1 0 0 1 0 1578)">
			<stop  offset="0" style="stop-color:#2C54A3"/>
			<stop  offset="1" style="stop-color:#40D1E6"/>
		</linearGradient>
		<path class="st2" d="M165.9,140.2c-5.4-5.4-8.1-13-8.1-22.9V63.6l0,0h20.1l0,0v49.3c0,4.3,0.4,7.7,1.3,10.1
			c0.9,2.4,2.4,4.1,4.5,5.2c2.1,1,5.1,1.5,9.1,1.5c3.5,0,6.4-0.2,8.7-0.5s4.6-0.9,6.9-1.7l0,0V63.6l0,0h20.1l0,0v65.2
			c0,6.6-3.4,11.5-10.1,14.7c-6.7,3.2-15.6,4.8-26.6,4.8C179.9,148.3,171.2,145.6,165.9,140.2z"/>
		
			<linearGradient id="SVGID_4_" gradientUnits="userSpaceOnUse" x1="267.6863" y1="-1404.8407" x2="289.6863" y2="-1544.8407" gradientTransform="matrix(1 0 0 1 0 1578)">
			<stop  offset="0" style="stop-color:#2C54A3"/>
			<stop  offset="1" style="stop-color:#40D1E6"/>
		</linearGradient>
		<path class="st3" d="M242.5,140.2l6.6-16.2c0,0,0,0,0.1,0c8.3,4.4,17.4,6.6,27.2,6.6c4.9,0,8.9-0.3,12.1-0.9l0,0
			c0.7-1.5,1.1-3.3,1.1-5.5c0-2.3-0.9-4.1-2.6-5.2c-1.7-1.1-5-2.3-9.8-3.4c-7-1.7-12.6-3.5-16.9-5.5c-4.3-2-7.6-4.8-10-8.3
			c-2.4-3.6-3.6-8.4-3.6-14.4c0-7.9,2.8-14,8.3-18.4s13.5-6.6,24-6.6c5.9,0,11.1,0.6,15.5,1.7c4.4,1.2,8.6,2.7,12.4,4.6l0,0v4.7
			c0,2.2-0.2,5.1-0.7,8.9c-0.5,3.7-1,6.4-1.5,8l0,0h-16.6l0,0l-1.2-9.7l0,0c-2.7-0.4-5.5-0.7-8.4-0.7c-3.8,0-6.6,0.5-8.5,1.5
			s-2.9,2.8-2.9,5.4c0,2.6,1.2,4.6,3.5,5.8c2.3,1.3,6.4,2.6,12.1,3.8c6.3,1.3,11.4,3,15.3,4.8c3.9,1.9,6.9,4.6,8.9,8.1
			c2.1,3.5,3.1,8.2,3.1,13.9c0,7.9-2.8,14-8.3,18.4s-14.1,6.5-25.7,6.5C262.8,148,251.8,145.5,242.5,140.2
			C242.5,140.3,242.5,140.2,242.5,140.2z"/>
		
			<linearGradient id="SVGID_5_" gradientUnits="userSpaceOnUse" x1="342.978" y1="-1393.0092" x2="364.9779" y2="-1533.0092" gradientTransform="matrix(1 0 0 1 0 1578)">
			<stop  offset="0" style="stop-color:#2C54A3"/>
			<stop  offset="1" style="stop-color:#40D1E6"/>
		</linearGradient>
		<path class="st4" d="M333.3,144.5c-6.1-2.6-9.2-7.1-9.2-13.8v-67l0,0h62.4l0,0V82l0,0h-42.3l0,0v14.8l0,0h35.4l0,0v17.5l0,0h-35.4
			l0,0v13.9l0,0c4.6,0.9,9.8,1.3,15.8,1.3c9,0,17.2-0.8,24.6-2.5h0.1l2.5,17.9c0,0,0,0,0,0.1c-7.7,2-17,2.9-27.8,2.9
			C348.2,148.3,339.5,147,333.3,144.5z"/>
		
			<linearGradient id="SVGID_6_" gradientUnits="userSpaceOnUse" x1="398.8182" y1="-1384.2343" x2="420.8182" y2="-1524.2344" gradientTransform="matrix(1 0 0 1 0 1578)">
			<stop  offset="0" style="stop-color:#2C54A3"/>
			<stop  offset="1" style="stop-color:#40D1E6"/>
		</linearGradient>
		<path class="st5" d="M402.7,63.6h20.1l0,0v83.3l0,0h-20.1l0,0V63.6C402.6,63.6,402.7,63.6,402.7,63.6z"/>
		
			<linearGradient id="SVGID_7_" gradientUnits="userSpaceOnUse" x1="451.8704" y1="-1375.8976" x2="473.8703" y2="-1515.8975" gradientTransform="matrix(1 0 0 1 0 1578)">
			<stop  offset="0" style="stop-color:#2C54A3"/>
			<stop  offset="1" style="stop-color:#40D1E6"/>
		</linearGradient>
		<path class="st6" d="M462,82.4h-26.5l0,0V63.7l0,0h73.3l0,0v18.7l0,0h-26.5l0,0v64.4l0,0h-20.1l0,0L462,82.4
			C462.1,82.5,462,82.4,462,82.4z"/>
	</g>
	
		<linearGradient id="SVGID_8_" gradientUnits="userSpaceOnUse" x1="35.2281" y1="-1441.3699" x2="57.2281" y2="-1581.3699" gradientTransform="matrix(1 0 0 1 0 1578)">
		<stop  offset="0" style="stop-color:#2C54A3"/>
		<stop  offset="1" style="stop-color:#40D1E6"/>
	</linearGradient>
	<circle class="st7" cx="54.2" cy="15.9" r="15.9"/>
</g>
<path class="st8" d="M22.1,223.4l0.5,3.4c-2.5,0.8-5.7,1.1-9.4,1.1c-4.6,0-7.9-1.2-9.8-3.7c-1.9-2.5-2.8-6.7-2.8-12.7
	s0.9-10.2,2.8-12.7c1.9-2.5,5.1-3.7,9.8-3.7c3.3,0,6.2,0.3,8.7,0.9l-0.5,3.6c-2.5-0.3-5.3-0.3-8.2-0.3s-5,0.9-6,2.6
	c-1.1,1.7-1.7,5-1.7,9.6s0.6,7.9,1.7,9.6c1.1,1.7,3.1,2.6,6,2.6C17.1,223.9,20.1,223.7,22.1,223.4z"/>
<path class="st8" d="M46.9,205h4.5c1.1,0,1.7,0.6,1.7,1.7l0.9,20.6h-4.2l-0.8-19h-0.8l-5.3,15c-0.3,0.9-0.8,1.4-1.7,1.4h-3.3
	c-0.8,0-1.4-0.5-1.7-1.4l-5.1-15h-0.8l-0.8,19h-4l0.9-20.6c0-1.1,0.6-1.7,1.7-1.7h4.5c0.9,0,1.4,0.5,1.7,1.4l4.2,12.2
	c0.3,0.9,0.6,2,0.9,3.3H40c0-0.3,0.2-0.8,0.5-1.5c0.2-0.8,0.3-1.4,0.5-1.7l4.2-12.2C45.5,205.4,46.1,205,46.9,205z"/>
<path class="st8" d="M58.9,208.7l-0.5-3.3c4-0.8,7.6-1.1,10.8-1.1c2.8,0,4.6,0.6,6,1.7c1.2,1.1,1.9,2.9,1.9,5.7v15.5h-3.6l-0.5-3.6
	c-2.6,2.6-5.6,3.9-9,3.9c-2,0-3.7-0.6-5-1.7c-1.2-1.1-1.9-2.6-1.9-4.6v-2.3c0-1.7,0.6-3.1,1.7-4.2c1.1-0.9,2.6-1.4,4.6-1.4h9v-1.7
	c0-1.4-0.3-2.3-0.9-2.8c-0.6-0.5-1.7-0.8-3.4-0.8C66.7,208.2,63.6,208.4,58.9,208.7z M62,219.7v1.2c0,1.1,0.3,1.9,0.8,2.3
	c0.5,0.5,1.4,0.8,2.5,0.8c2.6,0,5.1-1.1,7.6-3.1v-4h-8.2c-0.9,0-1.7,0.3-2,0.8C62.2,218.1,62,218.8,62,219.7z"/>
<path class="st8" d="M86,205l0.3,3.4c1.1-1.2,2.6-2.2,4.3-2.9c1.7-0.8,3.4-1.1,5-1.1c2.6,0,4.6,0.9,5.7,2.9c1.2,2,1.9,5,1.9,8.8
	c0,4.2-0.6,7.1-2,9c-1.4,1.7-3.6,2.6-6.5,2.6s-5.7-0.8-8.1-2.2c0.2,1.5,0.2,3.1,0.2,4.5v6.2h-4.4v-31.3L86,205L86,205z M86.8,211.5
	v11.3c2.9,0.8,5.3,1.2,6.8,1.2c1.9,0,3.3-0.5,4-1.5s1.1-3.1,1.1-6.2c0-2.9-0.3-5-1.1-6.2c-0.6-1.2-1.9-1.9-3.6-1.9
	c-1.1,0-2.2,0.3-3.3,0.8C89.7,209.5,88.3,210.4,86.8,211.5z"/>
<path class="st8" d="M125.2,208.7h-7.9v18.7h-4.5v-18.7h-7.9v-3.6h20.3L125.2,208.7L125.2,208.7z"/>
<path class="st8" d="M142.8,195.4v9.1c4.3,0.2,7.4,1.2,9.3,3.1s2.8,4.6,2.8,8.7s-0.9,6.8-2.8,8.7c-1.9,1.9-5,2.8-9.3,2.9v8.7h-4
	v-8.7c-4.3-0.2-7.4-1.2-9.3-2.9c-1.9-1.9-2.8-4.6-2.8-8.7s0.9-7,2.8-8.7c1.9-1.9,5-2.8,9.3-3.1v-9.1H142.8L142.8,195.4z
	 M138.9,224.2v-15.9c-2.9,0.2-5.1,0.8-6.2,2c-1.1,1.2-1.7,3.3-1.7,6c0,2.8,0.6,4.8,1.7,5.9C133.8,223.4,136,224,138.9,224.2z
	 M142.6,208.2v15.9c2.9-0.2,5-0.8,6.2-2c1.2-1.1,1.7-3.1,1.7-5.9s-0.6-4.8-1.7-6C147.8,209,145.7,208.4,142.6,208.2z"/>
<path class="st8" d="M160.4,207.1c1.7-1.9,4.3-2.6,8.2-2.6s6.7,0.9,8.2,2.6c1.5,1.9,2.5,4.8,2.5,9.1c0,4.3-0.8,7.3-2.5,9
	c-1.5,1.7-4.3,2.6-8.2,2.6s-6.7-0.9-8.2-2.6c-1.5-1.9-2.5-4.8-2.5-9C158,211.9,158.9,209,160.4,207.1z M173.4,209.9
	c-0.9-1.1-2.5-1.7-4.8-1.7s-3.9,0.6-4.8,1.7c-0.9,1.1-1.2,3.3-1.2,6.3s0.5,5.1,1.2,6.3c0.9,1.1,2.5,1.7,4.8,1.7s3.9-0.6,4.8-1.7
	s1.2-3.3,1.2-6.3C174.8,213.2,174.4,211,173.4,209.9z"/>
<path class="st8" d="M203.3,205v22.3H199v-10.2h-11v10.2h-4.3V205h4.3v8.8h11V205H203.3z"/>
<path class="st8" d="M212.9,213.5h5c3.4,0,5.9,0.5,7.1,1.5c1.2,1.1,1.9,2.9,1.9,5.6c0,2.6-0.6,4.5-1.9,5.6c-1.2,0.9-3.4,1.5-6.3,1.5
	c-4.2,0-7.4-0.2-9.8-0.3h-0.2v-22.5h4.2V213.5L212.9,213.5z M212.9,224.2h5c1.7,0,2.9-0.3,3.6-0.8c0.6-0.5,0.9-1.5,0.9-2.9
	s-0.3-2.3-0.9-2.9c-0.6-0.5-1.9-0.8-3.6-0.8h-5V224.2z M235,205v22.3h-4.5V205H235z"/>
<path class="st8" d="M268.6,227.3h-4v-14.1c0-0.5,0-0.9,0-1.7c0-0.8,0-1.2,0-1.4h-0.2c-0.3,0.8-0.8,1.7-1.5,2.8l-10.7,14.6h-3.6V205
	h3.9v14.2c0,0.9,0,1.9-0.2,2.9h0.2c0.6-1.1,1.1-2,1.5-2.6l10.8-14.6h3.6v22.3L268.6,227.3L268.6,227.3z"/>
<path class="st8" d="M282.5,208.7l-0.5-3.3c4-0.8,7.6-1.1,10.8-1.1c2.8,0,4.6,0.6,6,1.7c1.2,1.1,1.9,2.9,1.9,5.7v15.5h-3.6l-0.5-3.6
	c-2.6,2.6-5.6,3.9-9,3.9c-2,0-3.7-0.6-5-1.7c-1.2-1.1-1.9-2.6-1.9-4.6v-2.3c0-1.7,0.6-3.1,1.7-4.2c1.1-0.9,2.6-1.4,4.6-1.4h9v-1.7
	c0-1.4-0.3-2.3-0.9-2.8c-0.6-0.5-1.7-0.8-3.4-0.8C290.2,208.2,287.1,208.4,282.5,208.7z M285.6,219.7v1.2c0,1.1,0.3,1.9,0.8,2.3
	c0.5,0.5,1.4,0.8,2.5,0.8c2.6,0,5.1-1.1,7.6-3.1v-4h-8.2c-0.9,0-1.7,0.3-2,0.8C285.8,218.1,285.6,218.8,285.6,219.7z"/>
<path class="st8" d="M315,215.7L315,215.7c0.8,0.2,1.4,0.3,2,0.5s1.1,0.5,1.5,0.6c0.5,0.2,0.9,0.6,1.2,1.2c0.5,0.6,0.8,1.1,1.1,1.5
	c0.3,0.5,0.6,1.1,1.1,2.2c0.5,0.9,0.8,1.9,0.9,2.5c0.3,0.8,0.6,1.7,1.2,3.3h-4.6c-0.6-1.5-0.9-2.6-1.2-3.3c-0.3-0.6-0.6-1.4-1.1-2.5
	c-0.5-0.9-0.8-1.5-1.1-2c-0.3-0.3-0.6-0.8-1.2-1.2c-0.5-0.5-0.9-0.8-1.5-0.8c-0.5-0.2-1.1-0.2-1.9-0.2h-3.1c0.2,0.8,0.2,1.4,0.2,2
	v7.7h-4.3v-22.3h4.3v6.5c0,0.8,0,1.7-0.2,2.6h2.8c2,0,3.4-0.6,4.3-2c0.9-1.2,2-3.7,3.3-7.1h4.6c-0.5,1.4-0.9,2.3-1.1,2.8
	s-0.5,1.2-0.9,2.2c-0.5,0.9-0.8,1.7-0.9,2c-0.3,0.3-0.6,0.8-0.9,1.4c-0.5,0.6-0.8,0.9-1.2,1.2c-0.5,0.2-0.9,0.5-1.4,0.6
	C316.2,215.5,315.6,215.7,315,215.7z"/>
<path class="st8" d="M343.9,223.7l0.5,2.9c-2.3,0.8-5,1.2-7.7,1.2c-3.9,0-6.7-0.9-8.2-2.6s-2.5-4.8-2.5-9.1c0-4.3,0.8-7.3,2.5-9.1
	c1.5-1.7,4.3-2.6,8.2-2.6c2.9,0,5.4,0.3,7.4,1.1l-0.6,2.8c-2.3-0.2-4.3-0.2-6-0.2c-2.6,0-4.3,0.6-5.3,1.7c-0.9,1.1-1.4,3.3-1.4,6.3
	c0,3.1,0.5,5.1,1.4,6.3c0.9,1.1,2.8,1.7,5.3,1.7C339.9,224.2,342.1,224,343.9,223.7z"/>
<path class="st8" d="M361.3,218.3h-10.1c0.2,2.3,0.8,3.9,1.9,4.6c0.9,0.8,2.6,1.2,4.8,1.2c2,0,4.6-0.2,7.7-0.6l0.5,2.9
	c-2,0.9-5,1.4-8.8,1.4s-6.7-0.9-8.4-2.6c-1.7-1.9-2.5-4.8-2.5-9.1c0-4.3,0.8-7.4,2.5-9.1c1.5-1.7,4.3-2.6,7.9-2.6
	c3.4,0,5.9,0.6,7.4,1.9c1.5,1.2,2.3,3.1,2.3,5.6C366.7,216.3,364.8,218.3,361.3,218.3z M351.2,214.9h9c1.5,0,2.2-0.9,2.2-2.9
	c0-1.4-0.3-2.3-1.1-2.9c-0.8-0.6-2-0.8-4-0.8c-2.2,0-3.7,0.5-4.6,1.4C351.7,210.6,351.2,212.3,351.2,214.9z"/>
<path class="st8" d="M387.7,223.7l0.5,2.9c-2.3,0.8-5,1.2-7.7,1.2c-3.9,0-6.7-0.9-8.2-2.6s-2.5-4.8-2.5-9.1c0-4.3,0.8-7.3,2.5-9.1
	c1.5-1.7,4.3-2.6,8.2-2.6c2.9,0,5.4,0.3,7.4,1.1l-0.6,2.8c-2.3-0.2-4.3-0.2-6-0.2c-2.6,0-4.3,0.6-5.3,1.7c-0.9,1.1-1.4,3.3-1.4,6.3
	c0,3.1,0.5,5.1,1.4,6.3c0.9,1.1,2.8,1.7,5.3,1.7C383.5,224.2,385.7,224,387.7,223.7z"/>
<path class="st8" d="M408.1,223.7l0.5,2.9c-2.3,0.8-5,1.2-7.7,1.2c-3.9,0-6.7-0.9-8.2-2.6s-2.5-4.8-2.5-9.1c0-4.3,0.8-7.3,2.5-9.1
	c1.5-1.7,4.3-2.6,8.2-2.6c2.9,0,5.4,0.3,7.4,1.1l-0.6,2.8c-2.3-0.2-4.3-0.2-6-0.2c-2.6,0-4.3,0.6-5.3,1.7s-1.4,3.3-1.4,6.3
	c0,3.1,0.5,5.1,1.4,6.3c0.9,1.1,2.8,1.7,5.3,1.7C404.1,224.2,406.3,224,408.1,223.7z"/>
<path class="st8" d="M432.3,205l-8.7,23.4c-1.1,3.1-2.5,5.3-4.2,6.7c-2,1.5-5,2-8.7,1.4l0.5-3.1c2.3,0.2,4.2-0.2,5.4-0.9
	c1.1-0.8,2.2-2.3,3.1-4.3l0.3-0.8h-0.9c-0.8,0-1.2-0.3-1.5-1.1l-7.9-21.2h4.6l5.6,16.3c0.5,1.1,0.8,2,0.8,2.8h0.6
	c0-0.2,0.2-0.5,0.3-0.9c0.2-0.5,0.3-0.8,0.3-1.1c0.2-0.3,0.2-0.6,0.3-0.8l5.4-16.3L432.3,205L432.3,205z"/>
<path class="st8" d="M434.9,208.7l-0.5-3.3c4-0.8,7.6-1.1,10.8-1.1c2.8,0,4.6,0.6,6,1.7c1.2,1.1,1.9,2.9,1.9,5.7v15.5h-3.6l-0.5-3.6
	c-2.6,2.6-5.6,3.9-9,3.9c-2,0-3.7-0.6-5-1.7c-1.2-1.1-1.9-2.6-1.9-4.6v-2.3c0-1.7,0.6-3.1,1.7-4.2c1.1-0.9,2.6-1.4,4.6-1.4h9v-1.7
	c0-1.4-0.3-2.3-0.9-2.8s-1.7-0.8-3.4-0.8C442.6,208.2,439.4,208.4,434.9,208.7z M438,219.7v1.2c0,1.1,0.3,1.9,0.8,2.3
	c0.5,0.5,1.4,0.8,2.5,0.8c2.6,0,5.1-1.1,7.6-3.1v-4h-8.2c-0.9,0-1.7,0.3-2,0.8C438.1,218.1,438,218.8,438,219.7z"/>
<path class="st8" d="M462,205l0.3,3.4c1.1-1.2,2.6-2.2,4.3-2.9c1.7-0.8,3.4-1.1,5-1.1c2.6,0,4.6,0.9,5.7,2.9c1.2,2,1.9,5,1.9,8.8
	c0,4.2-0.6,7.1-2,9c-1.4,1.7-3.6,2.6-6.5,2.6s-5.7-0.8-8.1-2.2c0.2,1.5,0.2,3.1,0.2,4.5v6.2h-4.3v-31.3L462,205L462,205z
	 M462.7,211.5v11.3c2.9,0.8,5.3,1.2,6.8,1.2c1.9,0,3.3-0.5,4-1.5s1.1-3.1,1.1-6.2c0-2.9-0.3-5-1.1-6.2c-0.6-1.2-1.9-1.9-3.6-1.9
	c-1.1,0-2.2,0.3-3.3,0.8C465.7,209.5,464.3,210.4,462.7,211.5z"/>
<path class="st8" d="M487.7,213.5h5c3.4,0,5.9,0.5,7.1,1.5c1.2,1.1,1.9,2.9,1.9,5.6c0,2.6-0.6,4.5-1.9,5.6c-1.2,0.9-3.4,1.5-6.3,1.5
	c-4.2,0-7.4-0.2-9.8-0.3h-0.2v-22.5h4.2L487.7,213.5L487.7,213.5z M487.7,224.2h5c1.7,0,2.9-0.3,3.6-0.8c0.6-0.5,0.9-1.5,0.9-2.9
	s-0.3-2.3-0.9-2.9c-0.6-0.5-1.9-0.8-3.6-0.8h-5V224.2z M509.8,205v22.3h-4.5V205H509.8z"/>
</svg>
