<?xml version="1.0" encoding="utf-8"?>
<!-- Generator: Adobe Illustrator 22.1.0, SVG Export Plug-In . SVG Version: 6.00 Build 0)  -->
<svg version="1.1" id="_x31_0" xmlns="http://www.w3.org/2000/svg" xmlns:xlink="http://www.w3.org/1999/xlink" x="0px" y="0px"
	 viewBox="0 0 67.2 55.7" enable-background="new 0 0 67.2 55.7" xml:space="preserve">
<path fill="#FFFFFF" d="M31.4,40.9l0.3-3.9l-4.4-0.3l-1.5-4.1l2.9-3.2L26.5,27L22,30.2l-3.4-1.6l-0.4-4.8l-3.5-0.6l-0.4,5.6l-4,1.3
	l-2.9-2.9l-1.9,2.1l2,4.1l-2,3.9l-3.7-0.1l-0.6,3.8l4,0.5L8,44.7l-3.6,3.3l2.7,3.6l3.5-3.1l4.3,0.9l-0.1,4.9l3.5-1l0.4-3.8l4.3-1
	l2.8,2.8l2.9-2.8l-2.9-4l1.3-3.4L31.4,40.9z M16.7,44C14.1,44,12,42,12,39.4c0-2.6,2.1-4.6,4.6-4.6s4.6,2.1,4.6,4.6
	C21.3,42,19.2,44,16.7,44z"/>
<path fill="#FFFFFF" d="M64.5,21.2l0.3-4.3l-4.9-0.3L58.2,12l3.2-3.6l-2.4-2.6l-5,3.5l-3.7-1.8l-0.4-5.3L46,1.5l-0.4,6.2l-4.4,1.4
	L38,5.9l-2.1,2.4l2.2,4.6l-2.2,4.3L31.7,17L31,21.2l4.4,0.6l3.1,3.6l-4,3.6l3.1,4l3.9-3.5l4.7,1L46,35.9l3.9-1.1l0.4-4.2l4.7-1.1
	l3.1,3.1l3.2-3.1l-3.2-4.4l1.4-3.7L64.5,21.2z M48.1,24.7c-2.8,0-5.1-2.3-5.1-5.1c0-2.8,2.3-5.1,5.1-5.1c2.8,0,5.1,2.3,5.1,5.1
	C53.3,22.4,51,24.7,48.1,24.7z"/>
<path fill="#2E58AB" d="M27.4,33.4l3.7-3.7l-5-5l-3.9,3.9c-0.6-0.3-1.3-0.6-1.9-0.8v-5.5h-7.1v5.5c-0.7,0.2-1.3,0.5-1.9,0.8
	l-3.9-3.9l-5,5l3.7,3.7c-0.4,0.7-0.7,1.4-0.9,2.1H0v7.1h5.1C5.3,43.3,5.6,44,6,44.7l-3.6,3.6l5,5l3.7-3.7c0.7,0.4,1.4,0.6,2.1,0.9
	v5.2h7.1v-5.2c0.7-0.2,1.5-0.5,2.1-0.9l3.7,3.7l5-5l-3.6-3.6c0.4-0.7,0.7-1.4,0.9-2.2h5.1v-7.1h-5.2C28,34.7,27.7,34,27.4,33.4z
	 M30.5,39.5H26l-0.2,1.2c-0.2,1.2-0.7,2.4-1.4,3.3l-0.7,1l3.2,3.2l-0.8,0.8l-3.2-3.2l-1,0.7c-1,0.6-2.1,1.1-3.3,1.3l-1.2,0.2v4.6
	h-1.1l0-4.6L15,47.9c-1.2-0.2-2.3-0.7-3.3-1.3l-1-0.7l-3.2,3.2l-0.8-0.8l3.2-3.2l-0.7-1c-0.7-1-1.2-2.1-1.4-3.3l-0.2-1.2H3v-1.1h4.5
	l0.3-1.2c0.3-1.2,0.8-2.3,1.4-3.2l0.7-1l-3.4-3.4l0.8-0.8l3.4,3.4l1-0.6c1-0.6,2-1,3.2-1.3l1.2-0.2v-4.9h1.1v4.9l1.2,0.2
	c1.1,0.2,2.2,0.7,3.2,1.3l1,0.6l3.4-3.4l0.8,0.8L23.5,33l0.7,1c0.7,1,1.2,2.1,1.4,3.2l0.3,1.2h4.6V39.5z M16.7,33.1
	c-3.4,0-6.1,2.7-6.1,6.1c0,3.4,2.7,6.1,6.1,6.1c3.4,0,6.1-2.7,6.1-6.1C22.8,35.9,20.1,33.1,16.7,33.1z M16.7,42.3
	c-1.7,0-3.1-1.4-3.1-3.1c0-1.7,1.4-3.1,3.1-3.1c1.7,0,3.1,1.4,3.1,3.1C19.8,40.9,18.5,42.3,16.7,42.3z M67.2,22.9v-7.7h-5.9
	c-0.3-0.9-0.7-1.8-1.2-2.7l4.3-4.3l-5.4-5.4l-4.4,4.4c-0.8-0.4-1.6-0.7-2.5-1V0h-7.7v6.3c-0.9,0.3-1.7,0.6-2.5,1l-4.4-4.4l-5.4,5.4
	l4.3,4.3c-0.5,0.8-0.9,1.7-1.2,2.7H29v7.7h5.8c0.3,1,0.7,1.9,1.2,2.8l-4.1,4.1l5.4,5.4l4.2-4.2c0.9,0.5,1.8,0.8,2.7,1.1v5.9H52v-5.9
	c1-0.3,1.9-0.6,2.7-1.1l4.2,4.2l5.4-5.4l-4.1-4.1c0.5-0.9,0.9-1.8,1.2-2.8H67.2z M60.1,29.9l-1.2,1.2l-3.7-3.7l-1,0.7
	c-1.2,0.8-2.5,1.3-3.9,1.6L49,29.8v5.4h-1.7v-5.4L46,29.6c-1.4-0.3-2.8-0.8-3.9-1.6l-1-0.7l-3.7,3.7l-1.2-1.2l3.7-3.7l-0.7-1
	c-0.8-1.2-1.4-2.5-1.6-3.9l-0.2-1.2H32v-1.7l5.3,0l0.3-1.2c0.3-1.4,0.9-2.7,1.7-3.8l0.7-1l-3.9-3.9l1.2-1.2l3.9,3.9l1-0.6
	c1.1-0.7,2.4-1.2,3.7-1.5l1.2-0.2V3H49v5.7l1.2,0.2c1.4,0.3,2.6,0.8,3.7,1.5l1,0.6l3.9-3.9l1.2,1.2l-3.9,3.9l0.7,1
	c0.8,1.1,1.4,2.4,1.7,3.8l0.3,1.2h5.3v1.7h-5.3l-0.2,1.2c-0.3,1.4-0.8,2.8-1.6,3.9l-0.7,1L60.1,29.9z M48.1,12.5
	c-3.8,0-6.8,3-6.8,6.8c0,3.8,3,6.8,6.8,6.8c3.8,0,6.8-3,6.8-6.8C54.9,15.6,51.9,12.5,48.1,12.5z M48.1,23.2c-2.1,0-3.8-1.7-3.8-3.8
	c0-2.1,1.7-3.8,3.8-3.8c2.1,0,3.8,1.7,3.8,3.8C51.9,21.4,50.2,23.2,48.1,23.2z"/>
</svg>
